{
  "profiles": {
    "Simulation - Save": {
      "commandName": "Project",
      "commandLineArgs": "-output=\"data.json\""
    },
    "Simulation - Load": {
      "commandName": "Project",
      "commandLineArgs": "-input=\"data.json\""
    },
    "Local Logging": {
      "commandName": "Project",
      "commandLineArgs": "-l=logging_local.json -m=map.json"
    },
    "Async Logging": {
      "commandName": "Project",
      "commandLineArgs": "-l=logging_async.json -m=map.json"
    },
    "Sync Logging": {
      "commandName": "Project",
      "commandLineArgs": "-l=logging_sync.json -m=map.json"
    }
  }
}