<mxfile host="app.diagrams.net" modified="2021-07-15T22:03:37.854Z" agent="5.0 (Windows)" etag="HrhcMM9ziK3YPewMysxx" version="14.8.3" type="gitlab">
  <diagram id="VNJnJxVRLH5Nmb1Ez0yW" name="Page-1">
    <mxGraphModel dx="1422" dy="752" grid="1" gridSize="10" guides="1" tooltips="1" connect="1" arrows="1" fold="1" page="1" pageScale="1" pageWidth="827" pageHeight="1169" math="0" shadow="0">
      <root>
        <mxCell id="0" />
        <mxCell id="1" parent="0" />
        <mxCell id="x2Ghxtq-gnfvuEsg5v55-47" value="Object Mangagement System" style="verticalAlign=top;align=left;spacingTop=8;spacingLeft=2;spacingRight=12;shape=cube;size=10;direction=south;fontStyle=4;html=1;" vertex="1" parent="1">
          <mxGeometry x="150" y="30" width="390" height="230" as="geometry" />
        </mxCell>
        <mxCell id="x2Ghxtq-gnfvuEsg5v55-46" value="Simulation" style="verticalAlign=top;align=left;spacingTop=8;spacingLeft=2;spacingRight=12;shape=cube;size=10;direction=south;fontStyle=4;html=1;" vertex="1" parent="1">
          <mxGeometry x="150" y="290" width="390" height="120" as="geometry" />
        </mxCell>
        <mxCell id="x2Ghxtq-gnfvuEsg5v55-2" value="ObjectDefinition" style="html=1;" vertex="1" parent="1">
          <mxGeometry x="180" y="180" width="110" height="50" as="geometry" />
        </mxCell>
        <mxCell id="x2Ghxtq-gnfvuEsg5v55-3" value="Component" style="html=1;" vertex="1" parent="1">
          <mxGeometry x="390" y="180" width="110" height="50" as="geometry" />
        </mxCell>
        <mxCell id="x2Ghxtq-gnfvuEsg5v55-16" value="" style="endArrow=diamondThin;endFill=0;endSize=24;html=1;" edge="1" parent="1" source="x2Ghxtq-gnfvuEsg5v55-3" target="x2Ghxtq-gnfvuEsg5v55-2">
          <mxGeometry width="160" relative="1" as="geometry">
            <mxPoint x="410" y="480" as="sourcePoint" />
            <mxPoint x="570" y="480" as="targetPoint" />
            <Array as="points">
              <mxPoint x="370" y="205" />
            </Array>
          </mxGeometry>
        </mxCell>
        <mxCell id="x2Ghxtq-gnfvuEsg5v55-17" value="Besteht aus" style="edgeLabel;html=1;align=center;verticalAlign=middle;resizable=0;points=[];" vertex="1" connectable="0" parent="x2Ghxtq-gnfvuEsg5v55-16">
          <mxGeometry x="-0.4375" y="1" relative="1" as="geometry">
            <mxPoint x="-9" y="-1" as="offset" />
          </mxGeometry>
        </mxCell>
        <mxCell id="x2Ghxtq-gnfvuEsg5v55-18" value="ObjectState" style="html=1;" vertex="1" parent="1">
          <mxGeometry x="180" y="330" width="110" height="50" as="geometry" />
        </mxCell>
        <mxCell id="x2Ghxtq-gnfvuEsg5v55-33" value="" style="endArrow=open;endFill=1;endSize=12;html=1;exitX=0.5;exitY=0;exitDx=0;exitDy=0;" edge="1" parent="1" source="x2Ghxtq-gnfvuEsg5v55-18" target="x2Ghxtq-gnfvuEsg5v55-2">
          <mxGeometry width="160" relative="1" as="geometry">
            <mxPoint x="220" y="490" as="sourcePoint" />
            <mxPoint x="380" y="490" as="targetPoint" />
          </mxGeometry>
        </mxCell>
        <mxCell id="x2Ghxtq-gnfvuEsg5v55-34" value="Instanz von" style="edgeLabel;html=1;align=center;verticalAlign=middle;resizable=0;points=[];" vertex="1" connectable="0" parent="x2Ghxtq-gnfvuEsg5v55-33">
          <mxGeometry x="-0.45" y="-2" relative="1" as="geometry">
            <mxPoint x="-2" y="-32" as="offset" />
          </mxGeometry>
        </mxCell>
        <mxCell id="x2Ghxtq-gnfvuEsg5v55-35" value="Map" style="html=1;" vertex="1" parent="1">
          <mxGeometry x="390" y="330" width="110" height="50" as="geometry" />
        </mxCell>
        <mxCell id="x2Ghxtq-gnfvuEsg5v55-39" value="ObjectFactory" style="html=1;" vertex="1" parent="1">
          <mxGeometry x="180" y="70" width="110" height="50" as="geometry" />
        </mxCell>
        <mxCell id="x2Ghxtq-gnfvuEsg5v55-40" value="" style="endArrow=open;endFill=1;endSize=12;html=1;" edge="1" parent="1" source="x2Ghxtq-gnfvuEsg5v55-35" target="x2Ghxtq-gnfvuEsg5v55-18">
          <mxGeometry width="160" relative="1" as="geometry">
            <mxPoint x="470" y="430" as="sourcePoint" />
            <mxPoint x="310" y="430" as="targetPoint" />
          </mxGeometry>
        </mxCell>
        <mxCell id="x2Ghxtq-gnfvuEsg5v55-41" value="Enthält" style="edgeLabel;html=1;align=center;verticalAlign=middle;resizable=0;points=[];" vertex="1" connectable="0" parent="x2Ghxtq-gnfvuEsg5v55-40">
          <mxGeometry x="-0.2" y="-2" relative="1" as="geometry">
            <mxPoint as="offset" />
          </mxGeometry>
        </mxCell>
        <mxCell id="x2Ghxtq-gnfvuEsg5v55-43" value="" style="endArrow=open;endFill=1;endSize=12;html=1;" edge="1" parent="1" source="x2Ghxtq-gnfvuEsg5v55-39" target="x2Ghxtq-gnfvuEsg5v55-2">
          <mxGeometry width="160" relative="1" as="geometry">
            <mxPoint x="280" y="380" as="sourcePoint" />
            <mxPoint x="440" y="380" as="targetPoint" />
          </mxGeometry>
        </mxCell>
        <mxCell id="x2Ghxtq-gnfvuEsg5v55-45" value="Verwaltet" style="edgeLabel;html=1;align=center;verticalAlign=middle;resizable=0;points=[];" vertex="1" connectable="0" parent="x2Ghxtq-gnfvuEsg5v55-43">
          <mxGeometry x="-0.5" y="-3" relative="1" as="geometry">
            <mxPoint x="3" y="15" as="offset" />
          </mxGeometry>
        </mxCell>
      </root>
    </mxGraphModel>
  </diagram>
</mxfile>
