[
  {
    "TypeId": 0,
    "Name": "food",
    "Components": [],
    "State": {
      "Id": {
        "$type": "EntitySimulation.Objects.AlterationContainer`1[[System.Int32, System.Private.CoreLib]], EntitySimulation",
        "Capacity": 10,
        "Strategy": null,
        "Value": 0
      },
      "Consumed": {
        "$type": "EntitySimulation.Objects.AlterationContainer`1[[System.Boolean, System.Private.CoreLib]], EntitySimulation",
        "Capacity": 10,
        "Strategy": {
          "$type": "EntitySimulation.Objects.Interpolation.BoolOrInterpolationStrategy, EntitySimulation"
        },
        "Value": false
      },
      "Type": {
        "$type": "EntitySimulation.Objects.AlterationContainer`1[[System.Int32, System.Private.CoreLib]], EntitySimulation",
        "Capacity": 10,
        "Strategy": null,
        "Value": 0
      },
      "Energy": {
        "$type": "EntitySimulation.Objects.AlterationContainer`1[[System.Double, System.Private.CoreLib]], EntitySimulation",
        "Capacity": 10,
        "Strategy": {
          "$type": "EntitySimulation.Objects.Interpolation.DoubleAverageInterpolationStrategy, EntitySimulation"
        },
        "Value": 15.0
      },
      "Position": {
        "$type": "EntitySimulation.Objects.AlterationContainer`1[[Utility.Vector2, Utility]], EntitySimulation",
        "Capacity": 10,
        "Strategy": null,
        "Value": {
          "X": 0.0,
          "Y": 0.0
        }
      }
    }
  },
  {
    "TypeId": 1,
    "Name": "spawner",
    "Components": [
      {
        "Priority": 0,
        "Component": {
          "$type": "EntitySimulation.Components.Food.FoodSpawner, EntitySimulation",
          "EnergyMaximum": {
            "InitialValue": 0.0,
            "Name": "FoodSpawner.EnergyMaximum",
            "InterpolationStrategy": null
          },
          "SpawnType": {
            "InitialValue": 0,
            "Name": "FoodSpawner.SpawnType",
            "InterpolationStrategy": null
          },
          "Distribution": {
            "InitialValue": {
              "$type": "Utility.RandomHelper.RandomGenerator, Utility"
            },
            "Name": "FoodSpawner.Distribution",
            "InterpolationStrategy": null
          },
          "SpawnArea": {
            "InitialValue": {
              "$type": "Utility.Shapes.Circle, Utility",
              "Radius": 0.0,
              "Center": {
                "X": 0.0,
                "Y": 0.0
              }
            },
            "Name": "FoodSpawner.SpawnArea",
            "InterpolationStrategy": null
          },
          "Rng": {
            "InitialValue": {
              "Seed": null
            },
            "Name": "FoodSpawner.Rng",
            "InterpolationStrategy": null
          },
          "Cooldown": {
            "InitialValue": "00:00:00",
            "Name": "FoodSpawner.Cooldown",
            "InterpolationStrategy": null
          },
          "Interval": {
            "InitialValue": "00:00:01",
            "Name": "FoodSpawner.Interval",
            "InterpolationStrategy": null
          },
          "Identifier": 269548474
        }
      }
    ],
    "State": {
      "FoodSpawner.Cooldown": {
        "$type": "EntitySimulation.Objects.AlterationContainer`1[[System.TimeSpan, System.Private.CoreLib]], EntitySimulation",
        "Capacity": 10,
        "Strategy": null,
        "Value": "00:00:00"
      },
      "FoodSpawner.SpawnType": {
        "$type": "EntitySimulation.Objects.AlterationContainer`1[[System.Int32, System.Private.CoreLib]], EntitySimulation",
        "Capacity": 10,
        "Strategy": null,
        "Value": 0
      },
      "FoodSpawner.Interval": {
        "$type": "EntitySimulation.Objects.AlterationContainer`1[[System.TimeSpan, System.Private.CoreLib]], EntitySimulation",
        "Capacity": 10,
        "Strategy": null,
        "Value": "00:00:00.2000000"
      },
      "Id": {
        "$type": "EntitySimulation.Objects.AlterationContainer`1[[System.Int32, System.Private.CoreLib]], EntitySimulation",
        "Capacity": 10,
        "Strategy": null,
        "Value": 0
      },
      "FoodSpawner.Rng": {
        "$type": "EntitySimulation.Objects.AlterationContainer`1[[Utility.Random, Utility]], EntitySimulation",
        "Capacity": 10,
        "Strategy": null,
        "Value": {
          "Seed": null
        }
      },
      "Position": {
        "$type": "EntitySimulation.Objects.AlterationContainer`1[[Utility.Vector2, Utility]], EntitySimulation",
        "Capacity": 10,
        "Strategy": null,
        "Value": {
          "X": 0.0,
          "Y": 0.0
        }
      },
      "Type": {
        "$type": "EntitySimulation.Objects.AlterationContainer`1[[System.Int32, System.Private.CoreLib]], EntitySimulation",
        "Capacity": 10,
        "Strategy": null,
        "Value": 1
      },
      "FoodSpawner.EnergyMaximum": {
        "$type": "EntitySimulation.Objects.AlterationContainer`1[[System.Double, System.Private.CoreLib]], EntitySimulation",
        "Capacity": 10,
        "Strategy": null,
        "Value": 1000.0
      },
      "FoodSpawner.Distribution": {
        "$type": "EntitySimulation.Objects.AlterationContainer`1[[Utility.RandomHelper.INumberGenerator, Utility]], EntitySimulation",
        "Capacity": 10,
        "Strategy": null,
        "Value": {
          "$type": "Utility.RandomHelper.RandomGenerator, Utility"
        }
      },
      "FoodSpawner.SpawnArea": {
        "$type": "EntitySimulation.Objects.AlterationContainer`1[[Utility.Shapes.IShape, Utility]], EntitySimulation",
        "Capacity": 10,
        "Strategy": null,
        "Value": {
          "$type": "Utility.Shapes.Rect, Utility",
          "TopLeft": {
            "X": 0.0,
            "Y": 0.0
          },
          "BottomRight": {
            "X": 500.0,
            "Y": 500.0
          }
        }
      }
    }
  },
  {
    "TypeId": 2,
    "Name": "entity",
    "Components": [
      {
        "Priority": 0,
        "Component": {
          "$type": "EntitySimulation.Components.Detection.RadialDetector, EntitySimulation",
          "Identifier": 1101493307
        }
      },
      {
        "Priority": 1,
        "Component": {
          "$type": "EntitySimulation.Components.Food.FoodConsumer, EntitySimulation",
          "Identifier": 361709742
        }
      },
      {
        "Priority": 2,
        "Component": {
          "$type": "EntitySimulation.Components.Metabolism, EntitySimulation",
          "Identifier": 302596119
        }
      },
      {
        "Priority": 3,
        "Component": {
          "$type": "EntitySimulation.Components.Networks.NeuralNetwork, EntitySimulation",
          "Identifier": 1122627734
        }
      },
      {
        "Priority": 4,
        "Component": {
          "$type": "EntitySimulation.Components.Map.Movement, EntitySimulation",
          "RotationVelocityMax": 0.0033892634302260323,
          "RotationForceMax": 3.267840143930216,
          "VelocityMax": 31.451621918368254,
          "LinearForceMax": 1.0001183482549478,
          "EnergyLoss": 0.7661084824983994,
          "Identifier": 1555655117
        }
      },
      {
        "Priority": 5,
        "Component": {
          "$type": "EntitySimulation.Components.Networks.NetworkTrainer, EntitySimulation",
          "Iteration": {
            "InitialValue": 0,
            "Name": "NetworkTrainer.Iteration",
            "InterpolationStrategy": null
          },
          "Cooldown": {
            "InitialValue": "00:00:00",
            "Name": "NetworkTrainer.Cooldown",
            "InterpolationStrategy": null
          },
          "Interval": {
            "InitialValue": "00:00:01",
            "Name": "NetworkTrainer.Interval",
            "InterpolationStrategy": null
          },
          "Fitness": {
            "$type": "EntitySimulation.Networks.Fitness.EnergyFitness, EntitySimulation",
            "EnergyTreshold": 300.0
          },
          "Mutator": {
            "$type": "EntitySimulation.Networks.Mutation.MeshMutator, EntitySimulation"
          },
          "Trainer": {
            "$type": "EntitySimulation.Networks.Training.SimpleTrainer, EntitySimulation"
          },
          "Identifier": 68479241
        }
      }
    ],
    "State": {
      "RotationForce": {
        "$type": "EntitySimulation.Objects.AlterationContainer`1[[System.Double, System.Private.CoreLib]], EntitySimulation",
        "Capacity": 10,
        "Strategy": null,
        "Value": 0.0
      },
      "MaxEnergy": {
        "$type": "EntitySimulation.Objects.AlterationContainer`1[[System.Double, System.Private.CoreLib]], EntitySimulation",
        "Capacity": 10,
        "Strategy": null,
        "Value": 1000.0
      },
      "NetworkTrainer.Iteration": {
        "$type": "EntitySimulation.Objects.AlterationContainer`1[[System.Int32, System.Private.CoreLib]], EntitySimulation",
        "Capacity": 10,
        "Strategy": null,
        "Value": 0
      },
      "Id": {
        "$type": "EntitySimulation.Objects.AlterationContainer`1[[System.Int32, System.Private.CoreLib]], EntitySimulation",
        "Capacity": 10,
        "Strategy": null,
        "Value": 0
      },
      "DetectionRange": {
        "$type": "EntitySimulation.Objects.AlterationContainer`1[[System.Double, System.Private.CoreLib]], EntitySimulation",
        "Capacity": 10,
        "Strategy": null,
        "Value": 250.0
      },
      "Velocity": {
        "$type": "EntitySimulation.Objects.AlterationContainer`1[[System.Double, System.Private.CoreLib]], EntitySimulation",
        "Capacity": 10,
        "Strategy": null,
        "Value": 0.0
      },
      "LinearForce": {
        "$type": "EntitySimulation.Objects.AlterationContainer`1[[System.Double, System.Private.CoreLib]], EntitySimulation",
        "Capacity": 10,
        "Strategy": null,
        "Value": 0.0
      },
      "Mass": {
        "$type": "EntitySimulation.Objects.AlterationContainer`1[[System.Double, System.Private.CoreLib]], EntitySimulation",
        "Capacity": 10,
        "Strategy": null,
        "Value": 61.7082412837901
      },
      "RotationVelocity": {
        "$type": "EntitySimulation.Objects.AlterationContainer`1[[System.Double, System.Private.CoreLib]], EntitySimulation",
        "Capacity": 10,
        "Strategy": null,
        "Value": 0.0
      },
      "DetectedDistance": {
        "$type": "EntitySimulation.Objects.AlterationContainer`1[[System.Double, System.Private.CoreLib]], EntitySimulation",
        "Capacity": 10,
        "Strategy": null,
        "Value": 1.0
      },
      "Position": {
        "$type": "EntitySimulation.Objects.AlterationContainer`1[[Utility.Vector2, Utility]], EntitySimulation",
        "Capacity": 10,
        "Strategy": null,
        "Value": {
          "X": 0.0,
          "Y": 0.0
        }
      },
      "Rotation": {
        "$type": "EntitySimulation.Objects.AlterationContainer`1[[System.Double, System.Private.CoreLib]], EntitySimulation",
        "Capacity": 10,
        "Strategy": null,
        "Value": 0.0
      },
      "Type": {
        "$type": "EntitySimulation.Objects.AlterationContainer`1[[System.Int32, System.Private.CoreLib]], EntitySimulation",
        "Capacity": 10,
        "Strategy": null,
        "Value": 2
      },
      "ConsumptionRate": {
        "$type": "EntitySimulation.Objects.AlterationContainer`1[[System.Double, System.Private.CoreLib]], EntitySimulation",
        "Capacity": 10,
        "Strategy": null,
        "Value": 0.75
      },
      "NetworkTrainer.Cooldown": {
        "$type": "EntitySimulation.Objects.AlterationContainer`1[[System.TimeSpan, System.Private.CoreLib]], EntitySimulation",
        "Capacity": 10,
        "Strategy": null,
        "Value": "00:00:00"
      },
      "NetworkTrainer.Interval": {
        "$type": "EntitySimulation.Objects.AlterationContainer`1[[System.TimeSpan, System.Private.CoreLib]], EntitySimulation",
        "Capacity": 10,
        "Strategy": null,
        "Value": "00:00:00.5000000"
      },
      "Detected": {
        "$type": "EntitySimulation.Objects.AlterationContainer`1[[System.Double, System.Private.CoreLib]], EntitySimulation",
        "Capacity": 10,
        "Strategy": null,
        "Value": 0.0
      },
      "Energy": {
        "$type": "EntitySimulation.Objects.AlterationContainer`1[[System.Double, System.Private.CoreLib]], EntitySimulation",
        "Capacity": 10,
        "Strategy": {
          "$type": "EntitySimulation.Objects.Interpolation.DoubleAverageInterpolationStrategy, EntitySimulation"
        },
        "Value": 0.0
      },
      "ConsumeRadius": {
        "$type": "EntitySimulation.Objects.AlterationContainer`1[[System.Double, System.Private.CoreLib]], EntitySimulation",
        "Capacity": 10,
        "Strategy": null,
        "Value": 20.0
      },
      "Rng": {
        "$type": "EntitySimulation.Objects.AlterationContainer`1[[Utility.Random, Utility]], EntitySimulation",
        "Capacity": 10,
        "Strategy": null,
        "Value": {
          "Seed": null
        }
      },
      "DetectedAngle": {
        "$type": "EntitySimulation.Objects.AlterationContainer`1[[System.Double, System.Private.CoreLib]], EntitySimulation",
        "Capacity": 10,
        "Strategy": null,
        "Value": 0.0
      },
      "ActivationFunction": {
        "$type": "EntitySimulation.Objects.AlterationContainer`1[[EntitySimulation.Networks.Activation.IActivationFunction, EntitySimulation]], EntitySimulation",
        "Capacity": 10,
        "Strategy": null,
        "Value": {
          "$type": "EntitySimulation.Networks.Activation.ActivationSigmoid, EntitySimulation"
        }
      },
      "Network": {
        "$type": "EntitySimulation.Objects.AlterationContainer`1[[EntitySimulation.Networks.NetworkDefinition, EntitySimulation]], EntitySimulation",
        "Capacity": 10,
        "Strategy": null,
        "Value": {
          "LinkCount": 0,
          "InputMappings": [
            {
              "NeuronId": 0,
              "ValueId": "DetectedDistance"
            },
            {
              "NeuronId": 1,
              "ValueId": "Detected"
            },
            {
              "NeuronId": 2,
              "ValueId": "DetectedAngle"
            }
          ],
          "OutputMappings": [
            {
              "NeuronId": 3,
              "ValueId": "RotationForce"
            },
            {
              "NeuronId": 4,
              "ValueId": "LinearForce"
            }
          ],
          "InputCount": 3,
          "OutputCount": 2,
          "NeuronCount": 10,
          "State": [
            0.0,
            0.0,
            0.0,
            0.0,
            0.0,
            0.0,
            0.0,
            0.0,
            0.0,
            0.0,
            0.0,
            0.0,
            0.0,
            0.0,
            0.0
          ],
          "LastState": [
            0.0,
            0.0,
            0.0,
            0.0,
            0.0,
            0.0,
            0.0,
            0.0,
            0.0,
            0.0,
            0.0,
            0.0,
            0.0,
            0.0,
            0.0
          ],
          "Links": [],
          "LinkRule": 0,
          "InterpolationFactor": 0.5
        }
      }
    }
  }
]